<?xml version="1.0" encoding="UTF-8" standalone="no"?>
<!-- Generator: Adobe Illustrator 25.2.3, SVG Export Plug-In . SVG Version: 6.00 Build 0)  -->

<svg
   version="1.1"
   id="Lager_1"
   x="0px"
   y="0px"
   viewBox="0 0 800 458"
   style="enable-background:new 0 0 800 458;"
   xml:space="preserve"
   sodipodi:docname="branches.svg"
   inkscape:version="1.2 (56b05e47e7, 2022-06-09, custom)"
   xmlns:inkscape="http://www.inkscape.org/namespaces/inkscape"
   xmlns:sodipodi="http://sodipodi.sourceforge.net/DTD/sodipodi-0.dtd"
   xmlns="http://www.w3.org/2000/svg"
   xmlns:svg="http://www.w3.org/2000/svg"><defs
   id="defs69" /><sodipodi:namedview
   id="namedview67"
   pagecolor="#ffffff"
   bordercolor="#666666"
   borderopacity="1.0"
   inkscape:showpageshadow="2"
   inkscape:pageopacity="0.0"
   inkscape:pagecheckerboard="0"
   inkscape:deskcolor="#d1d1d1"
   showgrid="false"
   inkscape:zoom="1.66"
   inkscape:cx="428.01205"
   inkscape:cy="129.81928"
   inkscape:window-width="2486"
   inkscape:window-height="1376"
   inkscape:window-x="0"
   inkscape:window-y="0"
   inkscape:window-maximized="1"
   inkscape:current-layer="Lager_1" />
<style
   type="text/css"
   id="style18">
	.st0{fill:none;stroke:#404040;stroke-width:4;stroke-miterlimit:10;}
	.st1{fill:#B18BE8;stroke:#404040;stroke-width:4;stroke-miterlimit:10;}
	.st2{fill:#4ED1A1;stroke:#404040;stroke-width:4;stroke-miterlimit:10;}
	.st3{fill:#B3E3FF;stroke:#404040;stroke-width:4;stroke-miterlimit:10;}
	.st4{fill:#B18BE8;stroke:#404040;stroke-width:4;stroke-linecap:round;stroke-linejoin:round;stroke-miterlimit:10;}
	.st5{fill:#404040;}
	.st6{fill:#4ED1A1;stroke:#404040;stroke-width:4;stroke-linecap:round;stroke-linejoin:round;stroke-miterlimit:10;}
	.st7{fill:none;stroke:#404040;stroke-width:4;stroke-linecap:round;stroke-linejoin:round;stroke-miterlimit:10;}
	.st8{fill:#B3E3FF;stroke:#404040;stroke-width:4;stroke-linecap:round;stroke-linejoin:round;stroke-miterlimit:10;}
	.st9{fill:#414141;}
</style>
<path
   class="st0"
   d="M148.2,187.3c0,22.6-18.4,41-41,41 M148.2,187.3c0-22.6,18.4-41,41-41h22.4"
   id="path20" />
<circle
   class="st1"
   cx="232.6"
   cy="146.3"
   r="21"
   id="circle22" />
<path
   class="st0"
   d="M428.9,269.3c0-22.6-18.4-41-41-41 M428.9,269.3c0,22.6,18.4,41,41,41h214.4"
   id="path24" />
<circle
   class="st2"
   cx="513.2"
   cy="310.3"
   r="21"
   id="circle26" />
<circle
   class="st2"
   cx="609.2"
   cy="310.3"
   r="21"
   id="circle28" />
<circle
   class="st2"
   cx="705.2"
   cy="310.3"
   r="21"
   id="circle30" />
<path
   class="st3"
   d="M75.2,228.3h417"
   id="path32" />
<circle
   class="st3"
   cx="54.2"
   cy="228.3"
   r="21"
   id="circle34" />
<circle
   class="st3"
   cx="231.6"
   cy="228.3"
   r="21"
   id="circle36" />
<circle
   class="st3"
   cx="328.6"
   cy="228.3"
   r="21"
   id="circle38" />
<circle
   class="st3"
   cx="513.2"
   cy="228.3"
   r="21"
   id="circle40" />
<path
   class="st4"
   d="M166,5.1h133.1v50H166V5.1z"
   id="path42" />

<path
   class="st6"
   d="M643.6,401.4h123.2v50H643.6V401.4z"
   id="path46" />

<path
   class="st7"
   d="M232.6,100.8V77.3 M243.4,92.1l-10.8,10.8l-10.9-10.8 M513.2,183v-23.5 M524.1,174.3l-10.9,10.8l-10.9-10.8   M705.2,355.7v23.5 M694.3,364.4l10.9-10.9l10.9,10.9"
   id="path50" />
<g
   id="g64">
	<path
   class="st8"
   d="M463.9,86.8h96.2v50h-96.2V86.8z"
   id="path52" />
	<g
   id="g62">
		
		
		
		
	</g>
</g>
<text
   xml:space="preserve"
   style="font-size:14.6667px;line-height:1.25;font-family:s;-inkscape-font-specification:s;letter-spacing:0px;fill:#404040;fill-opacity:1"
   x="227.94315"
   y="25.229883"
   id="text379"><tspan
     sodipodi:role="line"
     id="tspan377"
     x="227.94315"
     y="25.229883"
     style="font-size:14.6667px;text-align:center;text-anchor:middle;fill:#404040;fill-opacity:1">petite </tspan><tspan
     sodipodi:role="line"
     x="227.94315"
     y="43.563259"
     id="tspan431"
     style="font-size:14.6667px;text-align:center;text-anchor:middle;fill:#404040;fill-opacity:1">édition</tspan></text><text
   xml:space="preserve"
   style="font-size:14.6667px;line-height:1.25;font-family:s;-inkscape-font-specification:s;letter-spacing:0px;fill:#404040;fill-opacity:1"
   x="705.60852"
   y="421.13968"
   id="text379-3"><tspan
     sodipodi:role="line"
     x="705.60852"
     y="421.13968"
     id="tspan431-7"
     style="font-size:14.6667px;text-align:center;text-anchor:middle;fill:#404040;fill-opacity:1">plusieurs</tspan><tspan
     sodipodi:role="line"
     x="705.60852"
     y="439.47305"
     style="font-size:14.6667px;text-align:center;text-anchor:middle;fill:#404040;fill-opacity:1"
     id="tspan3060">éditions</tspan></text><text
   xml:space="preserve"
   style="font-size:14.6667px;line-height:1.25;font-family:s;-inkscape-font-specification:s;letter-spacing:0px;fill:#404040;fill-opacity:1"
   x="508.3472"
   y="117.05104"
   id="text379-3-5"><tspan
     sodipodi:role="line"
     x="508.3472"
     y="117.05104"
     id="tspan431-7-5"
     style="font-size:14.6667px;text-align:center;text-anchor:middle;fill:#404040;fill-opacity:1">main</tspan></text><text
   xml:space="preserve"
   style="font-size:40px;line-height:1.25;font-family:s;-inkscape-font-specification:s;letter-spacing:0px"
   x="242.72636"
   y="30.631119"
   id="text3056"><tspan
     sodipodi:role="line"
     id="tspan3054"></tspan></text></svg>
